{
    "watch": [
        {
            "files" : "html/source/less/**/*.less",
            "build" : { "less" : "default" }
        },
        {
            "files" : "html/source/sass/**/*.scss",
            "build" : { "sass" : "default" }
        },
        {
            "files" : "html/source/js/scripts.js",
            "build" : { "js" : "default" }
        },
        {
            "files" : [
                "html/source/js/vendor/**/*.js",
                "html/source/js/vendors.js"
            ],
            "build" : { "js" : "vendors" }
        }
    ],
    "build": {
        "less": {
            "default": {
                "html/source/less/style.less": [
                    "html/public/css/"
                ]
            }
        },
        "sass": {
            "default": {
                "html/source/sass/style.scss": [
                    "html/public/css/"
                ]
            }
        },
        "js": {
            "default": {
                "html/source/js/scripts.js": [
                    "html/public/js/"
                ]
            },
            "vendors": {
                "html/source/js/vendors.js": [
                    "html/public/js/"
                ]
            }
        },
        "pot" : {
            "domain" : {
                "domain" : "domain",
                "package" : "package",
                "bugReport" : "#",
                "lastTranslator" : "Name <name@domain.com>",
                "team" : "Name <name@domain.com>",
                "relativeTo" : "path/to/theme/",
                "base" : "path/to/theme",
                "source" : [
                    "./path/to/theme/**/*.php",
                    "!path/to/theme/css/**",
                    "!path/to/theme/data/**",
                    "!path/to/theme/fonts/**",
                    "!path/to/theme/img/**",
                    "!path/to/theme/js/**",
                    "!path/to/theme/languages/**",
                    "!path/to/theme/lib/**"
                ],
                "destination" : [
                    "path/to/theme/languages/domain.pot"
                ]
            }
        }
    }
}
